org\lanit\models\AlertsItem.class
org\lanit\models\Info.class
org\lanit\Application.class
org\lanit\models\TickersItem.class
org\lanit\models\Request.class
org\lanit\models\Response.class
org\lanit\models\Delete.class
org\lanit\controllers\JSONController.class
org\lanit\models\Add.class
